module github.com/kosgrz/mattermost-plugin-bitbucket

go 1.12

require (
	github.com/Masterminds/sprig/v3 v3.1.0
	github.com/PuerkitoBio/goquery v1.5.1
	github.com/google/go-github v17.0.0+incompatible
	github.com/gorilla/mux v1.7.4
	github.com/ktrysmt/go-bitbucket v0.6.4
	github.com/mattermost/mattermost-server/v5 v5.3.2-0.20200723144633-ed34468996e6
	github.com/pkg/errors v0.9.1
	github.com/stretchr/testify v1.6.1
	github.com/wbrefvem/go-bitbucket v0.0.0-20190128183802-fc08fd046abb
	golang.org/x/oauth2 v0.0.0-20190319182350-c85d3e98c914
)
